/* DATA DESCRIPTION:
lpis/crop nomenclature with 17 classes
Code3: crop code 3 ascii letters french
Label_FR: french long name
N_2018: classe code (ini) used in 2018 experimentations
Label_EN: english long name
Code3_EN: crop code 3 ascii letters english 
License:    Creative Commons Attribution 4.0 (CC-BY-SA)
Author: IGN - Institut National de l'Information Geographique et 
  forestiere.
*/
Code3;Label_FR;N_2018;Label_EN;Code3_EN
HER;Herbe prédominante;1;Predominante Herbaceous/grass;HER
CER;Céréales;2;Cereal;CER
CHA;Chanvre;4;Hemp;HEM
FOL;Légumineuses fourragères;5;Leguminous Fodder;LEF
FOA;Autres fourrages;6;Other Fodder;OTF
OLE;Oléagineux;7;Oleagineous;OLE
PRO;Protéagineux;8;Protein crop;PRO
RIZ;Riz;9;rice;RIC
CUI;Cultures industrielles;10;Industrial cultivation;INC
FLF;Fruits, légumes, fleurs;11;Fruit vegetable flower;FVF
FAM;Plantes à parfum, aromatiques et médicinales;12;Aromatic and medecinal flower;AMF
LIG;Ligneux prédominants;13;Woody area;WOO
VER;Vergers;14;orchard;ORC
VIG;Vigne;15;vineyard;VIN
VIG;Taillis courte rotation;16;short rotation coppice;SRC
VIG;Surfaces non agricole;17;non agricultural area;NAA
VIG;Autres;18;other;OTH
